\relax 
\@writefile{lot}{\contentsline {table}{\numberline {1}{\ignorespaces ProfileUR125638323}}{1}}
\newlabel{}{{1}{1}}
\@writefile{lot}{\contentsline {table}{\numberline {2}{\ignorespaces ProfileUR69499350}}{2}}
\newlabel{}{{2}{2}}
\@writefile{lot}{\contentsline {table}{\numberline {3}{\ignorespaces ProfileUR17070445}}{3}}
\newlabel{}{{3}{3}}
\@writefile{lot}{\contentsline {table}{\numberline {4}{\ignorespaces ProfileUR126075063}}{4}}
\newlabel{}{{4}{4}}
\@writefile{lot}{\contentsline {table}{\numberline {5}{\ignorespaces ProfileUR124626812}}{5}}
\newlabel{}{{5}{5}}
\@writefile{lot}{\contentsline {table}{\numberline {6}{\ignorespaces ProfileUR124426321}}{6}}
\newlabel{}{{6}{6}}
\@writefile{lot}{\contentsline {table}{\numberline {7}{\ignorespaces ProfileUR124426273}}{7}}
\newlabel{}{{7}{7}}
\@writefile{lot}{\contentsline {table}{\numberline {8}{\ignorespaces ProfileUR124716604}}{8}}
\newlabel{}{{8}{8}}
\@writefile{lot}{\contentsline {table}{\numberline {9}{\ignorespaces ProfileUR124757197}}{9}}
\newlabel{}{{9}{9}}
\@writefile{lot}{\contentsline {table}{\numberline {10}{\ignorespaces ProfileUR124756757}}{10}}
\newlabel{}{{10}{10}}
\@writefile{lot}{\contentsline {table}{\numberline {11}{\ignorespaces ProfileUR117810121}}{11}}
\newlabel{}{{11}{11}}
\@writefile{lot}{\contentsline {table}{\numberline {12}{\ignorespaces ProfileUR117144716}}{12}}
\newlabel{}{{12}{12}}
\@writefile{lot}{\contentsline {table}{\numberline {13}{\ignorespaces ProfileUR100816817}}{13}}
\newlabel{}{{13}{13}}
\@writefile{lot}{\contentsline {table}{\numberline {14}{\ignorespaces ProfileUR118934059}}{14}}
\newlabel{}{{14}{14}}
\@writefile{lot}{\contentsline {table}{\numberline {15}{\ignorespaces ProfileUR116044688}}{15}}
\newlabel{}{{15}{15}}
\@writefile{lot}{\contentsline {table}{\numberline {16}{\ignorespaces ProfileUR120736031}}{16}}
\newlabel{}{{16}{16}}
\@writefile{lot}{\contentsline {table}{\numberline {17}{\ignorespaces ProfileUR117643046}}{17}}
\newlabel{}{{17}{17}}
\@writefile{lot}{\contentsline {table}{\numberline {18}{\ignorespaces ProfileUR115463058}}{18}}
\newlabel{}{{18}{18}}
\@writefile{lot}{\contentsline {table}{\numberline {19}{\ignorespaces ProfileUR115835427}}{19}}
\newlabel{}{{19}{19}}
\@writefile{lot}{\contentsline {table}{\numberline {20}{\ignorespaces ProfileUR115452342}}{20}}
\newlabel{}{{20}{20}}
\@writefile{lot}{\contentsline {table}{\numberline {21}{\ignorespaces ProfileUR126464017}}{21}}
\newlabel{}{{21}{21}}
\@writefile{lot}{\contentsline {table}{\numberline {22}{\ignorespaces ProfileUR123338870}}{22}}
\newlabel{}{{22}{22}}
\@writefile{lot}{\contentsline {table}{\numberline {23}{\ignorespaces ProfileUR121571909}}{23}}
\newlabel{}{{23}{23}}
\@writefile{lot}{\contentsline {table}{\numberline {24}{\ignorespaces ProfileUR125971379}}{24}}
\newlabel{}{{24}{24}}
\@writefile{lot}{\contentsline {table}{\numberline {25}{\ignorespaces ProfileUR121674141}}{25}}
\newlabel{}{{25}{25}}
\@writefile{lot}{\contentsline {table}{\numberline {26}{\ignorespaces ProfileUR118794493}}{26}}
\newlabel{}{{26}{26}}
\@writefile{lot}{\contentsline {table}{\numberline {27}{\ignorespaces ProfileUR122289172}}{27}}
\newlabel{}{{27}{27}}
\@writefile{lot}{\contentsline {table}{\numberline {28}{\ignorespaces ProfileUR113948979}}{28}}
\newlabel{}{{28}{28}}
\@writefile{lot}{\contentsline {table}{\numberline {29}{\ignorespaces ProfileUR71357015}}{29}}
\newlabel{}{{29}{29}}
\@writefile{lot}{\contentsline {table}{\numberline {30}{\ignorespaces ProfileUR116375936}}{30}}
\newlabel{}{{30}{30}}
\@writefile{lot}{\contentsline {table}{\numberline {31}{\ignorespaces ProfileUR24122642}}{31}}
\newlabel{}{{31}{31}}
\@writefile{lot}{\contentsline {table}{\numberline {32}{\ignorespaces ProfileUR53712075}}{32}}
\newlabel{}{{32}{32}}
\@writefile{lot}{\contentsline {table}{\numberline {33}{\ignorespaces ProfileUR50767390}}{33}}
\newlabel{}{{33}{33}}
\@writefile{lot}{\contentsline {table}{\numberline {34}{\ignorespaces ProfileUR11468784}}{34}}
\newlabel{}{{34}{34}}
\@writefile{lot}{\contentsline {table}{\numberline {35}{\ignorespaces ProfileUR86017339}}{35}}
\newlabel{}{{35}{35}}
\@writefile{lot}{\contentsline {table}{\numberline {36}{\ignorespaces ProfileUR82620940}}{36}}
\newlabel{}{{36}{36}}
\@writefile{lot}{\contentsline {table}{\numberline {37}{\ignorespaces ProfileUR119492047}}{37}}
\newlabel{}{{37}{37}}
